<?xml version="1.0" encoding="UTF-8" standalone="no"?>
<svg
   xmlns:dc="http://purl.org/dc/elements/1.1/"
   xmlns:cc="http://creativecommons.org/ns#"
   xmlns:rdf="http://www.w3.org/1999/02/22-rdf-syntax-ns#"
   xmlns:svg="http://www.w3.org/2000/svg"
   xmlns="http://www.w3.org/2000/svg"
   xmlns:xlink="http://www.w3.org/1999/xlink"
   width="282px"
   height="143px"
   viewBox="0 0 282 143"
   version="1.1"
   id="svg72">
  <metadata
     id="metadata76">
    <rdf:RDF>
      <cc:Work
         rdf:about="">
        <dc:format>image/svg+xml</dc:format>
        <dc:type
           rdf:resource="http://purl.org/dc/dcmitype/StillImage" />
        <dc:title></dc:title>
      </cc:Work>
    </rdf:RDF>
  </metadata>
  <defs
     id="defs6">
    <polygon
       id="vy-path-1"
       points="0 0.1785462 61.9391262 0.1785462 61.9391262 142.589794 0 142.589794" />
    <polygon
       id="vy-path-3"
       points="0.2336124 0.1150422 74.5970904 0.1150422 74.5970904 142.59 0.2336124 142.59" />
    <polygon
       id="vy-path-5"
       points="0.0841428 0.088494 35.7325248 0.088494 35.7325248 73.7244396 0.0841428 73.7244396" />
    <polygon
       id="vy-path-7"
       points="0.2237634 0.088494 44.6845014 0.088494 44.6845014 88.8184878 0.2237634 88.8184878" />
  </defs>
  <g
     stroke="none"
     stroke-width="1"
     fill="none"
     fill-rule="evenodd"
     id="g70">
    <g
       transform="translate(-54.000000, -83.000000)"
       id="g68">
      <g
         transform="translate(54.000000, 83.000000)"
         id="g66">
        <path
           d="M212.414324,88.8185172 C212.474594,88.8185172 212.523398,88.7697132 212.523398,88.7094432 C212.523398,88.6553472 212.483708,88.6106592 212.432258,88.6021332 C210.1664,88.2734412 208.119572,87.5566692 206.253554,86.3600892 C202.105802,83.7002712 198.854162,78.6655212 196.087328,70.2391872 C195.72365,69.1311012 181.899182,22.0834572 180.996896,19.0129212 C177.84698,8.2945632 171.919352,3.4906032 166.435076,1.4640612 C163.621202,0.4241832 160.923752,0.1151892 158.778728,0.1151892 L154.955552,0.1151892 C154.894988,0.1151892 154.846184,0.1639932 154.846184,0.2239692 C154.846184,0.2780652 154.885874,0.3230472 154.937618,0.3315732 C156.466124,0.5511912 158.10488,0.9598512 159.76745,1.6583952 C164.843948,3.7910712 170.141534,8.6247252 173.194724,19.0129212 C173.87651,21.3334632 187.797998,68.7265572 188.096702,69.6597132 C190.91234,78.4623672 194.228954,83.6711652 198.489308,86.3847852 C201.179996,88.0988052 204.247592,88.8185172 207.803816,88.8185172 L212.414324,88.8185172 Z"
           fill="#F2F2F3"
           id="path8" />
        <path
           d="M224.641431,88.8185172 C224.701407,88.8185172 224.750211,88.7697132 224.750211,88.7094432 C224.750211,88.6553472 224.710815,88.6106592 224.659365,88.6021332 L224.659365,88.6015452 C218.451555,87.7983372 214.437573,79.0832952 212.220813,71.6644992 C209.894391,63.8796732 201.493341,35.4545772 196.492989,19.0129212 C191.469999,2.4965892 175.841547,0.1266552 168.764085,0.1151892 L168.766143,0.1151892 C168.705873,0.1151892 168.657069,0.1639932 168.657069,0.2239692 C168.657069,0.2780652 168.696465,0.3230472 168.748503,0.3315732 L168.748209,0.3321612 C175.357917,1.2226872 184.747689,5.2254972 188.799303,19.0129212 C192.355821,31.1142552 203.657181,69.5582832 204.091713,70.8448272 C206.805039,78.8798472 209.986413,83.7308472 214.013919,86.3330412 C216.724011,88.0841052 219.816891,88.8185172 223.408689,88.8185172 L224.641431,88.8185172 Z"
           fill="#F2F2F3"
           id="path10" />
        <g
           id="g19">
          <mask
             id="vy-mask-2"
             fill="white">
            <use
               xlink:href="#vy-path-1"
               id="use12" />
          </mask>
          <g
             id="g15" />
          <path
             d="M61.8303462,142.589794 L59.9302242,142.589794 C54.2816022,142.589794 47.4896142,139.71859 43.7516982,126.531808 L10.0772322,11.6157342 C8.0836182,4.7187882 5.1174522,1.2545862 0.0906402,0.3952242 L0.0912282,0.3952242 C0.0394842,0.3866982 -0.0002058,0.3417162 -0.0002058,0.2876202 C-0.0002058,0.2273502 0.0485982,0.1785462 0.1088682,0.1785462 L0.1632582,0.1785462 L5.1741942,0.1785462 C11.9065002,0.1785462 15.5685642,3.5492562 17.9002782,11.6157342 C17.9002782,11.6157342 49.0334082,117.27316 51.8628642,127.255636 C53.9561442,134.640328 56.4034002,139.663612 60.1889442,141.693682 C60.8010522,142.02208 61.3164342,142.2367 61.8471042,142.373116 L61.8482802,142.373116 C61.8997302,142.381642 61.9391262,142.426624 61.9391262,142.48072 C61.9391262,142.54099 61.8903222,142.589794 61.8303462,142.589794"
             fill="#F2F2F3"
             mask="url(#mask-2)"
             id="path17" />
        </g>
        <path
           d="M50.4312312,15.9026364 C47.2098732,4.7585664 42.1507212,0.1016064 32.8494432,0.1016064 L28.3109652,0.1016064 C28.2506952,0.1016064 28.2018912,0.1504104 28.2018912,0.2106804 C28.2018912,0.2650704 28.2412872,0.3097584 28.2930312,0.3182844 L28.2930312,0.3182844 C35.5601232,1.3505184 39.7954872,6.1344864 42.6193572,15.9026364 C42.6193572,15.9026364 70.4873232,110.80172 74.1058752,123.225866 C74.8996752,120.541646 76.2394332,116.006108 77.9255232,110.296628 C74.5992072,98.8694364 50.4312312,15.9026364 50.4312312,15.9026364"
           fill="#F2F2F3"
           id="path21" />
        <g
           transform="translate(64.092000, 0.000000)"
           id="g30">
          <mask
             id="vy-mask-4"
             fill="white">
            <use
               xlink:href="#vy-path-3"
               id="use23" />
          </mask>
          <g
             id="g26" />
          <path
             d="M0.3426864,142.589794 L3.6534204,142.589794 C7.8017604,142.589794 10.7735124,141.491998 13.0008564,139.677724 C16.6252884,136.724494 18.2752164,131.871436 19.8019584,126.750838 C20.0306904,125.984674 49.5241824,25.9535262 50.5628844,22.0486182 C54.0755964,8.8456662 61.9280424,3.0950262 70.3061604,1.0558422 C71.6967804,0.7174482 73.1018064,0.4822482 74.5038924,0.3317202 L74.5059504,0.3317202 C74.5579884,0.3231942 74.5970904,0.2782122 74.5970904,0.2241162 C74.5970904,0.1638462 74.5482864,0.1150422 74.4880164,0.1150422 L70.8009624,0.1150422 C59.7539124,0.1150422 47.4167904,4.4988762 42.7477764,22.0486182 C41.0643324,28.3772622 12.2155824,125.984674 11.9868504,126.750838 C10.4601084,131.871436 8.7255084,137.269276 5.1007824,140.222506 C3.6254904,141.424378 2.2751484,142.072648 0.3259284,142.37341 L0.3247524,142.37341 C0.2733024,142.381936 0.2336124,142.426918 0.2336124,142.481014 C0.2336124,142.541284 0.2824164,142.590088 0.3426864,142.590088 L0.3426864,142.589794 Z"
             fill="#F2F2F3"
             mask="url(#vy-mask-4)"
             id="path28" />
        </g>
        <g
           transform="translate(211.974000, 0.000000)"
           id="g39">
          <mask
             id="vy-mask-6"
             fill="white">
            <use
               xlink:href="#vy-path-5"
               id="use32" />
          </mask>
          <g
             id="g35" />
          <path
             d="M3.9614148,73.7244396 L21.3156468,15.8893476 C24.1392228,6.1217856 28.3742928,1.3378176 35.6405028,0.3049956 L35.6416788,0.3049956 C35.6934228,0.2964696 35.7325248,0.2514876 35.7325248,0.1973916 C35.7325248,0.1371216 35.6840148,0.0883176 35.6237448,0.0883176 L31.0855608,0.0883176 C21.7842828,0.0883176 16.7251308,4.7452776 13.5037728,15.8893476 L0.0841428,60.9724836 C0.0841428,60.9724836 3.6336048,72.8053956 3.9614148,73.7244396"
             fill="#F2F2F3"
             mask="url(#vy-mask-6)"
             id="path37" />
        </g>
        <path
           d="M256.771985,0.1785168 C248.862503,0.1785168 244.560107,4.1386968 241.821203,13.6149048 C241.821203,13.6149048 224.651603,71.0066448 224.506073,71.4938028 C223.244519,75.5501208 221.658095,79.4882508 220.061087,82.0301748 C221.573129,84.0999348 223.168961,85.3679568 224.749211,85.6851828 C227.730371,83.1267948 230.203499,78.3860448 232.416143,71.1830448 C232.533155,70.8008448 249.655715,13.6149048 249.655715,13.6149048 C252.028589,5.4070128 255.573641,1.3374648 261.619751,0.3951948 L261.622985,0.3951948 C261.674435,0.3866688 261.713831,0.3416868 261.713831,0.2875908 C261.713831,0.2273208 261.665027,0.1785168 261.604757,0.1785168 L256.771985,0.1785168 Z"
           fill="#00957A"
           id="path41" />
        <path
           d="M226.440476,91.7099778 L218.664764,91.7099778 C215.135,103.355906 210.466574,118.772972 208.73168,124.583 C203.89685,140.773874 211.523798,142.439678 214.43528,142.439678 L220.577822,142.439678 C220.638092,142.439384 220.686896,142.390874 220.686896,142.330604 C220.686896,142.27886 220.650734,142.235054 220.602224,142.224176 L220.601342,142.224176 C217.269146,141.430964 212.739782,137.97764 216.739652,124.583 C216.739652,124.583 223.790066,100.713434 226.440476,91.7099778"
           fill="#F2F2F3"
           id="path43" />
        <g
           transform="translate(227.262000, 0.000000)"
           id="g52">
          <mask
             id="vy-mask-8"
             fill="white">
            <use
               xlink:href="#vy-path-7"
               id="use45" />
          </mask>
          <g
             id="g48" />
          <path
             d="M44.6089434,0.3012618 C44.6527494,0.2871498 44.6845014,0.2459898 44.6845014,0.1974798 C44.6845014,0.1372098 44.6356974,0.0884058 44.5757214,0.0884058 L44.5757214,0.0886998 L43.4929194,0.0884058 C36.7606134,0.0884058 33.0985494,3.4594098 30.7668354,11.5255938 C30.7668354,11.5255938 17.4939114,56.1797838 13.3194054,70.0148358 C9.1448994,83.8498878 6.2819274,87.5560518 0.6141954,88.5341898 L0.3149034,88.6021038 C0.2631594,88.6106298 0.2237634,88.6553178 0.2237634,88.7094138 C0.2237634,88.7696838 0.2725674,88.8184878 0.3328374,88.8184878 L4.1780634,88.8184878 C14.0491134,88.8184878 17.7247014,82.2367098 21.1980174,70.6469358 C24.1080294,60.9369978 41.1297474,4.0532898 41.1297474,4.0532898 C41.6157294,2.4480498 43.0025274,0.7843038 44.6089434,0.3009678 L44.6089434,0.3012618 Z"
             fill="#F2F2F3"
             mask="url(#vy-mask-8)"
             id="path50" />
        </g>
        <path
           d="M234.265639,91.5084408 C231.537613,100.793255 223.762783,127.268837 223.762783,127.268837 C219.655603,141.024215 226.135069,142.439531 228.609079,142.439531 L234.613735,142.439531 C234.674005,142.439531 234.722809,142.390727 234.722809,142.330457 C234.722809,142.278713 234.686647,142.235201 234.638137,142.224323 L234.638431,142.224617 C231.821617,141.491969 228.139561,138.476705 231.486457,127.268837 C231.486457,127.268837 240.002167,98.3906868 243.244693,87.3724488 C241.390729,89.2484628 238.262569,90.9936468 234.265639,91.5084408"
           fill="#F2F2F3"
           id="path54" />
        <path
           d="M248.914541,142.439619 C248.974811,142.439619 249.023615,142.390815 249.023615,142.330545 C249.023615,142.278507 248.987453,142.235289 248.938943,142.224411 L248.938355,142.224411 C246.558719,141.547035 243.573443,138.910443 246.374675,129.529491 C246.374675,129.529491 279.307673,17.445813 281.141057,11.098353 C282.975029,4.750599 278.545037,0.779835 274.559867,0.180369 C274.531055,0.176253 274.400225,0.140091 274.373471,0.224763 C274.346717,0.309435 274.456379,0.361473 274.479017,0.373527 C275.271935,0.791301 276.159521,1.752975 275.674715,3.402315 C275.190203,5.051655 238.619249,129.529491 238.619249,129.529491 C235.123883,141.235101 240.637853,142.439619 242.742893,142.439619 L248.914541,142.439619 Z"
           fill="#F2F2F3"
           id="path56" />
        <path
           d="M196.807922,88.8185172 C196.867898,88.8185172 196.916702,88.7697132 196.916702,88.7094432 C196.916702,88.6553472 196.877306,88.6103652 196.825856,88.6018392 C194.587928,88.2772632 192.564326,87.5746032 190.717712,86.4047772 C186.363278,83.6464692 182.993744,78.2889072 180.137828,69.1637352 C179.89322,68.3825772 165.875888,20.6587332 165.392258,19.0129212 C162.426386,8.9216652 157.660352,4.0727232 152.958704,1.8486132 C150.103964,0.4982712 147.273038,0.1151892 144.8837,0.1151892 L140.770934,0.1151892 L140.753,0.1151892 C140.693024,0.1151892 140.64422,0.1639932 140.64422,0.2239692 C140.64422,0.2780652 140.683616,0.3230472 140.735066,0.3315732 C141.505346,0.4482912 152.20283,0.7790412 157.589498,19.0129212 C162.97646,37.2470952 169.431818,59.0439612 171.612416,66.7379412 C176.329646,83.3798112 182.415152,88.8185172 192.198884,88.8185172 L196.807922,88.8185172 Z"
           fill="#F2F2F3"
           id="path58" />
        <path
           d="M147.224381,6.3852096 C143.290661,9.7609176 140.036375,14.7721476 138.100679,22.0480596 C137.896055,22.8180456 108.663635,122.28148 108.023009,124.439734 C105.566051,132.722008 103.508051,140.948128 94.2017748,142.373146 C94.1503248,142.381672 94.1109288,142.426654 94.1109288,142.48075 C94.1109288,142.54102 94.1597328,142.589824 94.2200028,142.589824 L94.7027508,142.589824 L96.0704388,142.589824 C96.0704388,142.589824 97.4046108,142.56895 97.6721508,142.558072 C107.123369,142.176754 111.833837,138.16042 115.863695,124.439734 C118.806635,114.41992 145.703225,22.8421536 145.941365,22.0480596 C147.089435,18.2163576 148.468001,13.8536916 150.447209,10.0308096 C150.034727,9.3678396 148.577663,7.4944716 147.237905,6.3740376 C147.233201,6.3778596 147.228791,6.3813876 147.224381,6.3852096 Z"
           fill="#F2F2F3"
           id="path60" />
        <path
           d="M131.760922,6.290718 C127.908052,9.378894 124.456198,14.621502 122.692786,21.25032 C122.487868,22.019718 91.9377396,125.984586 91.7093016,126.75075 C90.1822656,131.871054 88.5323376,136.724406 84.9079056,139.677636 C83.2612116,141.019158 81.2079156,141.968778 78.5727936,142.372734 C78.5210496,142.381554 78.4819476,142.42683 78.4819476,142.480632 C78.4819476,142.540902 78.5307516,142.589706 78.5907276,142.589706 L83.3755776,142.589706 C87.5239176,142.589706 90.4959636,141.492204 92.7230136,139.677636 C96.3474456,136.724406 97.9973736,131.871348 99.5244096,126.75075 C99.7528476,125.984586 130.080712,22.817928 130.28563,22.048236 C132.221326,14.772324 135.475612,9.7608 139.409332,6.385386 C140.543878,5.411364 141.736342,4.576992 142.969378,3.86169 C142.949974,3.854928 142.908814,3.84258 142.849426,3.825528 C139.859446,2.97528 135.614086,3.202542 131.760922,6.290718 Z"
           fill="#00957A"
           id="path62" />
        <path
           d="M70.5084912,133.687945 C69.1631472,131.731081 68.0241912,129.372613 67.2192192,126.531985 C66.0570372,122.433037 34.1359872,13.6148166 34.1359872,13.6148166 C31.3970832,4.1386086 27.0946872,0.1784286 19.1854992,0.1784286 L14.3550792,0.1784286 C14.2948092,0.1784286 14.2460052,0.2275266 14.2460052,0.2875026 C14.2460052,0.3415986 14.2856952,0.3865806 14.3371452,0.3951066 C20.3835492,1.3373766 23.9286012,5.4069246 26.3011812,13.6148166 L59.3961732,126.531985 C61.1081352,132.571921 63.4610172,136.445959 66.0514512,138.872929 C67.8874812,137.811295 69.4512672,136.081987 70.5084912,133.687945"
           fill="#F2F2F3"
           id="path64" />
      </g>
    </g>
  </g>
</svg>
